<?xml version="1.0" encoding="utf-8"?>
<!-- Generator: Adobe Illustrator 15.0.0, SVG Export Plug-In . SVG Version: 6.00 Build 0)  -->
<!DOCTYPE svg PUBLIC "-//W3C//DTD SVG 1.1//EN" "http://www.w3.org/Graphics/SVG/1.1/DTD/svg11.dtd">
<svg version="1.1" id="Layer_13" xmlns="http://www.w3.org/2000/svg" xmlns:xlink="http://www.w3.org/1999/xlink" x="0px" y="0px"
	 width="512px" height="512px" viewBox="0 0 512 512" enable-background="new 0 0 512 512" xml:space="preserve">
<g>
	<path fill="#BC202E" d="M445.203,385.969c3.048,0,5.537-2.482,5.537-5.502v-50.596c0-7.083-5.783-12.834-12.832-12.834h-27.263
		c3.759-8.932,2.044-19.629-5.227-26.903c-9.567-9.535-25.08-9.535-34.646,0l-26.902,26.903h-69.208V127.365
		c0-10.402-8.403-18.837-18.798-18.837h-10.506c-2.021-11.497-12.058-20.264-24.114-20.264c-12.058,0-22.121,8.767-24.111,20.264
		H94.771c-10.392,0-18.795,8.435-18.795,18.837v279.148c0,10.392,8.403,18.801,18.795,18.801h44.434c3.07,0,5.503-2.432,5.503-5.475
		c0-3.065-2.433-5.498-5.503-5.498H94.771c-4.311,0-7.82-3.486-7.82-7.828V127.365c0-4.346,3.509-7.832,7.82-7.832h161.093
		c4.311,0,7.822,3.485,7.822,7.832v189.672h-90.997c-7.075,0-12.825,5.751-12.825,12.834v82.616c0,7.108,5.75,12.826,12.825,12.826
		h265.219c7.049,0,12.832-5.718,12.832-12.826v-5.862c0-3.069-2.489-5.506-5.537-5.506c-3.033,0-5.47,2.437-5.47,5.506v5.862
		c0,1.019-0.828,1.854-1.825,1.854H172.689c-0.991,0-1.822-0.835-1.822-1.854v-82.616c0-0.996,0.832-1.829,1.822-1.829h265.219
		c0.997,0,1.825,0.833,1.825,1.829v50.596C439.733,383.486,442.17,385.969,445.203,385.969z M221.244,99.271
		c5.974,0,11.007,3.867,12.828,9.257h-25.628C210.215,103.138,215.275,99.271,221.244,99.271z M378.546,297.934
		c2.569-2.572,5.945-3.956,9.538-3.956c3.617,0,7.022,1.384,9.565,3.956c5.251,5.227,5.251,13.823,0,19.077l-0.029,0.026h-38.18
		L378.546,297.934z"/>
	<path fill="#BC202E" d="M141.922,177.822h7.818c3.046,0,5.479-2.434,5.479-5.446c0-3.07-2.433-5.502-5.479-5.502h-7.818
		c-15.101,0-27.378,12.276-27.378,27.344c0,15.063,12.278,27.398,27.378,27.398h66.827c15.068,0,27.344-12.334,27.344-27.398
		c0-15.067-12.275-27.344-27.344-27.344h-32.627c-3.045,0-5.479,2.433-5.479,5.502c0,3.012,2.433,5.446,5.479,5.446h32.627
		c9.012,0,16.365,7.384,16.365,16.396c0,9.012-7.354,16.397-16.365,16.397h-66.827c-9.049,0-16.373-7.385-16.373-16.397
		C125.549,185.206,132.873,177.822,141.922,177.822z"/>
	<path fill="#BC202E" d="M367.62,357.19c1.66-3.595,0.782-7.831-2.152-10.427c-2.933-2.684-7.191-3.156-10.618-1.193l-15.401,8.934
		c-11.339-8.267-27.237-17.142-43.494-17.142c-21.566,0-42.523,15.54-53.091,24.803c-2.593,2.239-4.086,5.555-4.086,9.01
		c0,3.456,1.493,6.775,4.086,9.074c10.568,9.231,31.525,24.746,53.091,24.746c16.257,0,32.155-8.875,43.494-17.141l15.401,8.926
		c3.427,1.963,7.686,1.496,10.618-1.131c2.935-2.658,3.812-6.858,2.152-10.455l-5.938-13.106l0,0c-0.256-0.576-0.256-1.241,0-1.824
		L367.62,357.19z M351.645,376.651l3.455,7.546l-13.305-7.687c-1.931-1.104-4.339-0.938-6.081,0.448
		c-10.09,7.764-25.156,17.03-39.76,17.03c-18.633,0-38.269-15.434-45.814-22.039c-0.3-0.244-0.362-0.579-0.362-0.775
		c0-0.193,0.062-0.524,0.362-0.74c7.546-6.61,27.182-22.066,45.814-22.066c14.604,0,29.67,9.259,39.76,17.054
		c1.742,1.356,4.175,1.523,6.081,0.421l13.305-7.685l-3.455,7.545C350.095,369.214,350.095,373.198,351.645,376.651z"/>
	<path fill="#BC202E" d="M277.321,364.6c3.618,0,6.583,2.929,6.583,6.575c0,3.651-2.965,6.608-6.583,6.608
		c-3.652,0-6.641-2.957-6.641-6.608C270.681,367.528,273.669,364.6,277.321,364.6z"/>
	<path fill="#BC202E" d="M177.976,265.03c7.161-2.048,12.471-8.711,12.471-16.538c0-9.512-7.746-17.25-17.258-17.25
		c-7.743,0-14.348,5.17-16.478,12.333c-7.19,2.043-12.47,8.681-12.47,16.529c0,9.517,7.711,17.2,17.224,17.2
		C169.266,277.305,175.844,272.163,177.976,265.03z M173.188,242.276c3.431,0,6.249,2.789,6.249,6.216
		c0,1.88-0.83,3.573-2.183,4.702c-1.711-3.902-4.838-7.052-8.74-8.817C169.651,243.076,171.366,242.276,173.188,242.276z
		 M155.219,260.104c0-3.452,2.823-6.241,6.245-6.241c3.428,0,6.253,2.789,6.253,6.241c0,3.433-2.825,6.225-6.253,6.225
		C158.042,266.329,155.219,263.537,155.219,260.104z"/>
	<path fill="#BC202E" d="M187.07,270.113c-9.515,0-17.252,7.715-17.252,17.229c0,9.51,7.737,17.229,17.252,17.229
		c9.481,0,17.226-7.719,17.226-17.229C204.295,277.828,196.551,270.113,187.07,270.113L187.07,270.113z M187.07,293.59
		c-3.428,0-6.253-2.789-6.253-6.247c0-3.455,2.825-6.246,6.253-6.246c3.423,0,6.196,2.791,6.196,6.246
		C193.266,290.801,190.493,293.59,187.07,293.59z"/>
	<path fill="#BC202E" d="M231.195,263.893c0-9.504-7.74-17.272-17.193-17.272c-9.513,0-17.255,7.769-17.255,17.272
		c0,9.515,7.743,17.204,17.255,17.204C223.455,281.097,231.195,273.407,231.195,263.893z M207.75,263.893
		c0-3.45,2.793-6.247,6.251-6.247c3.425,0,6.222,2.797,6.222,6.247c0,3.461-2.796,6.221-6.222,6.221
		C210.544,270.113,207.75,267.354,207.75,263.893z"/>
	<path fill="#BC202E" d="M128.781,313.359c9.515,0,17.254-7.716,17.254-17.224c0-9.51-7.74-17.203-17.254-17.203
		c-9.48,0-17.228,7.693-17.228,17.203C111.553,305.644,119.301,313.359,128.781,313.359z M128.781,289.914
		c3.431,0,6.249,2.766,6.249,6.222c0,3.458-2.818,6.25-6.249,6.25c-3.426,0-6.247-2.792-6.247-6.25
		C122.535,292.68,125.355,289.914,128.781,289.914z"/>
</g>
</svg>
