<?xml version="1.0" encoding="utf-8"?>
<!-- Generator: Adobe Illustrator 15.0.0, SVG Export Plug-In . SVG Version: 6.00 Build 0)  -->
<!DOCTYPE svg PUBLIC "-//W3C//DTD SVG 1.1//EN" "http://www.w3.org/Graphics/SVG/1.1/DTD/svg11.dtd">
<svg version="1.1" id="Layer_3" xmlns="http://www.w3.org/2000/svg" xmlns:xlink="http://www.w3.org/1999/xlink" x="0px" y="0px"
	 width="512px" height="512px" viewBox="0 0 512 512" enable-background="new 0 0 512 512" xml:space="preserve">
<g>
	<path fill="#BC202E" d="M383.989,341.72c-3.085,0-5.631,2.512-5.631,5.632v49.403c0,21.666-17.595,39.293-39.287,39.293h-40.416
		c-9.263,0-17.955-3.175-24.969-8.937c6.392-8.446,10.185-18.979,10.185-30.356v-56.904c0-3.113-2.493-5.604-5.608-5.604
		c-3.109,0-5.601,2.491-5.601,5.604v56.904c0,21.666-17.655,39.293-39.312,39.293h-71.858c-21.659,0-39.306-17.627-39.306-39.293
		v-56.904c0-3.113-2.491-5.604-5.606-5.604s-5.604,2.491-5.604,5.604v56.904c0,27.868,22.634,50.526,50.516,50.526h71.858
		c12.456,0,23.823-4.547,32.652-12.021c9.041,7.688,20.683,12.021,32.652,12.021h40.416c27.86,0,50.55-22.658,50.55-50.526v-49.403
		C389.621,344.231,387.074,341.72,383.989,341.72z"/>
	<path fill="#BC202E" d="M346.926,210.357v-26.205c0-11.375-9.23-20.583-20.572-20.583h-14.973
		c-11.347,0-20.578,9.208-20.578,20.583v26.205c-5.202,2.433-14.783,7.989-23.608,18.709c-0.655-1.195-1.357-2.386-2.058-3.521
		c-7.638-12.291-17.491-22.171-29.269-29.377c-2.706-1.649-4.387-4.683-4.387-7.904v-8.935c3.575-1.976,5.98-5.792,5.98-10.151
		V140.75c0-7.226-5.871-13.129-13.098-13.129h-6.34v-18.709h36.956l7.34,7.365c1.083,1.081,2.548,1.625,3.95,1.625
		c1.466,0,2.896-0.544,4.009-1.625l16.462-16.489c2.164-2.193,2.164-5.742,0-7.934l-22.472-22.442
		c-1.059-1.085-2.494-1.649-3.954-1.649h-85.335c-11.373,0-20.605,9.228-20.605,20.572c0,11.376,9.232,20.578,20.605,20.578h1.841
		v18.709h-6.337c-7.227,0-13.103,5.903-13.103,13.129v28.428c0,4.359,2.435,8.175,5.984,10.151v8.935
		c0,3.221-1.68,6.255-4.361,7.904c-11.807,7.206-21.662,17.086-29.267,29.377c-12.454,20.006-18.761,45.891-18.761,76.89v11.207
		c0,3.115,2.488,5.632,5.604,5.632s5.606-2.517,5.606-5.632v-11.207c0-58.396,23.202-84.793,42.665-96.705
		c6.01-3.651,9.75-10.348,9.75-17.466v-7.468h45.646v7.468c0,7.119,3.738,13.815,9.774,17.466
		c10.61,6.492,22.332,17.325,30.807,35.304c0.19,0.809,0.516,1.568,0.999,2.22c6.503,14.699,10.834,33.946,10.834,59.181v11.207
		c0,3.115,2.491,5.632,5.601,5.632c3.115,0,5.608-2.517,5.608-5.632v-11.207c0-23.852-3.739-44.617-11.13-62.081
		c9.64-13.888,21.63-19.409,24.666-20.658h42.887c2.46,0.978,10.663,4.739,18.735,13.266c12.828,13.595,19.329,32.437,19.329,55.986
		v32.192c0,3.087,2.546,5.609,5.631,5.609s5.632-2.522,5.632-5.609v-32.192c0-33.378-12.454-53.331-22.908-64.186
		C359.083,216.829,351.393,212.466,346.926,210.357z M165.61,88.333c0-5.143,4.196-9.337,9.369-9.337h83.008l16.837,16.811
		l-8.555,8.524l-4.979-5.003c-1.057-1.03-2.492-1.655-3.979-1.655h-82.333C169.807,97.674,165.61,93.507,165.61,88.333z
		 M188.082,108.911h18.685v18.709h-18.685V108.911z M168.591,140.75c0-1.058,0.867-1.892,1.893-1.892h53.88
		c1.025,0,1.893,0.833,1.893,1.892v28.428c0,0.215-0.162,0.379-0.377,0.379h-56.911c-0.22,0-0.378-0.165-0.378-0.379V140.75z
		 M335.69,208.488h-33.684v-24.336c0-5.173,4.229-9.373,9.374-9.373h14.973c5.167,0,9.337,4.2,9.337,9.373V208.488z"/>
	<path fill="#BC202E" d="M349.932,296.423c0-17.106-13.913-31.054-31.082-31.054c-17.108,0-31.056,13.947-31.056,31.054
		c0,17.136,13.947,31.086,31.056,31.086C336.019,327.509,349.932,313.559,349.932,296.423z M299.031,296.423
		c0-10.907,8.877-19.813,19.818-19.813c10.936,0,19.843,8.906,19.843,19.813c0,10.934-8.907,19.85-19.843,19.85
		C307.908,316.272,299.031,307.356,299.031,296.423z"/>
	<path fill="#BC202E" d="M197.044,406.479c28.345,0,50.546-38.631,50.546-87.961s-22.201-87.96-50.546-87.96
		c-28.345,0-50.521,38.63-50.521,87.96S168.699,406.479,197.044,406.479z M197.044,241.792c21.309,0,39.28,35.141,39.28,76.725
		c0,41.591-17.971,76.728-39.28,76.728c-21.308,0-39.285-35.137-39.285-76.728C157.76,276.934,175.736,241.792,197.044,241.792z"/>
	<path fill="#BC202E" d="M373.32,108.186c-16.707,0-30.323,13.583-30.323,30.321c0,16.702,13.616,30.297,30.323,30.297
		c16.737,0,30.327-13.595,30.327-30.297C403.647,121.77,390.058,108.186,373.32,108.186z M373.32,157.593
		c-10.507,0-19.059-8.584-19.059-19.086c0-10.54,8.552-19.09,19.059-19.09c10.558,0,19.118,8.55,19.118,19.09
		C392.438,149.009,383.878,157.593,373.32,157.593z"/>
	<path fill="#BC202E" d="M326.16,108.911c11.372,0,20.601-9.202,20.601-20.578c0-11.345-9.229-20.572-20.601-20.572
		c-11.317,0-20.577,9.228-20.577,20.572C305.583,99.709,314.843,108.911,326.16,108.911z M326.16,78.996
		c5.171,0,9.366,4.195,9.366,9.337c0,5.174-4.195,9.34-9.366,9.34c-5.142,0-9.339-4.167-9.339-9.34
		C316.821,83.191,321.019,78.996,326.16,78.996z"/>
</g>
</svg>
